Generate + integrate a platemap and group results. • NormaliseForIC50
…
you can choose to write to an excel file and manually add values. Or
you can feed in a pre-made excel file. ## STEP3: Manual correction of
list

#NormaliseForIC50::generate_plate_map(input_directory,output_mode = "write",output_plateMap_file = output_generated_plateMap_file)
## manual correction/filling, making a new file as below
platemap <- readxl::read_excel(path="../Validation/validation_output/example_generated_platemap_manual_changes.xlsx")
platemap

## # A tibble: 124 × 14
##    Group Negative_Control_Column Positive_Control_Column Individual_condition
##    <chr>                   <dbl>                   <dbl> <chr>               
##  1 sera                        1                       2 patient1            
##  2 sera                        1                       2 patient1            
##  3 sera                        1                       2 patient2            
##  4 sera                        1                       2 patient2            
##  5 sera                        1                       2 patient3            
##  6 sera                        1                       2 patient3            
##  7 sera                        1                       2 patient4            
##  8 sera                        1                       2 patient4            
##  9 sera                        1                       2 patient5            
## 10 sera                        1                       2 patient5            
## # ℹ 114 more rows
## # ℹ 10 more variables: Virus <chr>, Plate <lgl>, Plate_Name <chr>, Well <chr>,
## #   dilution_or_concentration <chr>, Starting_Dilution_or_concentration <dbl>,
## #   dilution_series <chr>, promega_plate_path <chr>, file_creation_date <dttm>,
## #   column <chr>
…
